<?xml version="1.0" standalone="no"?>
<!DOCTYPE svg PUBLIC "-//W3C//DTD SVG 20010904//EN"
 "http://www.w3.org/TR/2001/REC-SVG-20010904/DTD/svg10.dtd">
<svg version="1.0" xmlns="http://www.w3.org/2000/svg"
 width="300.000000pt" height="150.000000pt" viewBox="0 0 300.000000 150.000000"
 preserveAspectRatio="xMidYMid meet">

<g transform="translate(0.000000,150.000000) scale(0.100000,-0.100000)"
fill="#000000" stroke="none">
<path d="M1850 1155 l0 -194 -77 -4 -78 -3 83 -2 c65 -2 84 1 88 13 8 19 24 9
24 -15 0 -37 -27 -50 -103 -50 -66 -1 -110 -7 -177 -24 -14 -3 -32 -2 -40 4
-13 9 -11 14 13 35 33 29 20 34 -14 6 l-24 -19 0 -279 c0 -304 1 -309 58 -343
39 -24 70 -24 170 -1 75 18 77 18 77 0 0 -17 8 -19 80 -19 l80 0 0 545 0 545
-80 0 -80 0 0 -195z m150 165 c0 -23 -29 -33 -86 -28 -32 2 -40 7 -42 26 -3
21 0 22 62 22 59 0 66 -2 66 -20z m-150 -707 c1 -183 3 -215 14 -201 15 21 26
13 26 -18 0 -34 -31 -46 -123 -47 -79 -2 -81 -1 -91 24 -5 15 -6 34 -2 44 5
15 8 15 27 -6 19 -23 20 -23 10 -2 -7 13 -11 95 -11 200 0 218 2 223 91 223
l59 0 0 -217z"/>
<path d="M1808 393 c6 -2 18 -2 25 0 6 3 1 5 -13 5 -14 0 -19 -2 -12 -5z"/>
<path d="M1738 383 c6 -2 18 -2 25 0 6 3 1 5 -13 5 -14 0 -19 -2 -12 -5z"/>
<path d="M100 610 l0 -350 80 0 80 0 0 280 0 280 70 0 70 0 0 -280 0 -280 80
0 80 0 0 280 0 280 75 0 75 0 0 -280 0 -280 80 0 80 0 0 319 c0 176 -3 327 -6
335 -4 9 -16 22 -28 28 -20 11 -20 10 -3 -9 9 -11 17 -24 17 -30 0 -10 -230
-28 -305 -24 -22 2 -96 2 -165 2 -69 -1 -147 4 -175 9 -27 6 -60 13 -72 16
-15 3 -23 12 -23 24 0 17 9 20 73 23 l72 3 -77 2 -78 2 0 -350z"/>
<path d="M463 953 c9 -2 23 -2 30 0 6 3 -1 5 -18 5 -16 0 -22 -2 -12 -5z"/>
<path d="M768 953 c6 -2 18 -2 25 0 6 3 1 5 -13 5 -14 0 -19 -2 -12 -5z"/>
<path d="M1143 953 c42 -2 112 -2 155 0 42 1 7 3 -78 3 -85 0 -120 -2 -77 -3z"/>
<path d="M2130 610 l0 -350 80 0 80 0 0 280 0 280 70 0 70 0 0 -280 0 -280 80
0 80 0 0 280 0 280 75 0 75 0 0 -280 0 -280 80 0 80 0 0 319 c0 176 -3 327 -6
335 -4 9 -16 22 -28 28 -20 11 -20 10 -3 -9 9 -11 17 -24 17 -30 0 -10 -230
-28 -305 -24 -22 2 -96 2 -165 2 -69 -1 -147 4 -175 9 -27 6 -60 13 -72 16
-15 3 -23 12 -23 24 0 17 9 20 73 23 l72 3 -77 2 -78 2 0 -350z"/>
<path d="M2493 953 c9 -2 23 -2 30 0 6 3 -1 5 -18 5 -16 0 -22 -2 -12 -5z"/>
<path d="M2798 953 c6 -2 18 -2 25 0 6 3 1 5 -13 5 -14 0 -19 -2 -12 -5z"/>
<path d="M1024 942 c-23 -15 -34 -53 -34 -121 l0 -71 75 0 75 0 0 45 0 45 75
0 75 0 0 -80 0 -79 -117 -4 -118 -3 123 -2 c103 -2 122 0 122 13 0 8 5 15 10
15 17 0 22 -27 10 -49 -9 -18 -20 -21 -72 -21 -33 0 -101 -5 -149 -12 -49 -6
-92 -9 -95 -5 -4 3 1 19 11 34 l17 28 -23 -23 c-23 -21 -24 -31 -27 -160 -6
-225 9 -244 172 -223 51 6 102 14 114 18 16 4 22 1 22 -11 0 -13 13 -16 75
-16 l75 0 0 315 c0 319 -4 357 -38 370 -13 5 -13 3 1 -13 9 -10 17 -23 17 -28
0 -5 -87 -9 -205 -9 -118 0 -205 4 -205 9 0 5 7 18 17 28 17 19 16 23 -3 10z
m266 -466 c0 -66 -4 -96 -12 -99 -10 -4 -10 -6 0 -6 7 -1 16 8 20 20 7 18 10
19 20 6 15 -17 7 -43 -16 -52 -9 -3 -51 -9 -94 -12 -86 -7 -108 2 -108 43 0
27 15 32 24 9 3 -10 17 -14 38 -13 l33 1 -30 4 -30 4 3 94 3 95 75 0 74 0 0
-94z"/>
</g>
</svg>
